{
  "type": "service_account",
  "project_id": "citynow-locker",
  "private_key_id": "79604a754a0ffecf70ef203c19fc472af8c922e4",
  "private_key": "-----BEGIN PRIVATE KEY-----\nMIIEvgIBADANBgkqhkiG9w0BAQEFAASCBKgwggSkAgEAAoIBAQC1nYfV9zZeirtY\nbWJgnIra9ejAowBqa32LDWzy8j8U+JHZ9m8h1GlQCnd5VAY52NqSq8j9nhnqKHEq\ngu/5EB5het7EQnFlu7NsTdNuhqOKSM1Zlb0KMNjtUkKNCMz2hsk4DvvjlQy1HelB\nSlr+9JelspndC8cyBDFMZsa62tFbDMSMWBBsrKKgD9kT+NBkL9wi+NaPfvyANTGP\nL7j6cuVW2UkEh7P1sPcxl0KMb2obYfrCBWS/UYKj1+B0SY2jyWdViWv0CtkWL1BC\noyGWWHoiJT3HswKpNh5XrsTcoM/5hvIV8QzU4cZVNuG7feY4Vf+/SvLIJjMIMNTl\nvq2vJ9YZAgMBAAECggEADl7Ov9rJ4+jvCkAMedfFIm51CmITbzg+ZK1tJpuNq4GA\nG+qkkD0UEKvlWHWyMOtUXyjl1FCJXSZyTuJxrcfNWZn87LNTsPCtUadmUI9pexCH\n5Bvlq3viPEQHJUzyF9siKpP/8Rnq+Z1KZrrFELmmkqs7Qrry+eWMR4710FTuXhl2\nPpRh2dYRV30di3inJVqn1LcJYMO28HftzRoBHXrDq8iYlApnaoLlfSv67DbwJaHn\nqatdAPJ/Ofr9Q10z9PaRnF5MbUQFIrjB83IxraS5NlkvEpyUkYqtG3iB4Mxx3cq7\noMGTZpwZryerdKTM/xv8EM91ViyWwUIW7jWJPPN/cQKBgQDh0FacJUOgC1jJMSM9\npiIIG854CiW7oqsEM9mVIgh57zpqJpnBj1OKgKXaYUlNWqhxkZjXP0qi5X2RSi5Q\nTiQNCAJVAcw6FnNm7UhPv8oPBThUvswJuv1urQOYoW3wXYNI1eVAjHmQ1fXY84Z9\naGZLyipujPL38vXZ3SmQagObKQKBgQDN5KjWV6TI93B4rqlu4HK2oUjDM+5rNQ/h\nlsJyfPmaD4SKO3zJdchvKY+fzuNsi5pgc4sux6cLKcV6yzln2Akul1xiflU8dMhp\nTtTE5kpyZB/RZ3UnSu7xVIeMp7ElkD9mQmZEnmFLnpjb/VNxCU1QKNA2pOMADBlV\nbCuR3SGxcQKBgGPuulWR3DKYsusettTSj978x0uyWe6G154dgB4SmKO1rilJ+eOC\nFVuHAV76jOERzNetsnEXjmU2oHJK3OInIqctszKBgCr4wot7WPQKEVbCXaKLaWqo\n+P0gziWe0zN7ft0d473ELQxe09T2OL+JEzRZPJv9/oyiVhDbYkiJ0hy5AoGBAMH4\ngA+e9kHWy4EGm903Wxsvi0tLq3wYu2N+EqalkslPgUBxlrh9XF1NvF+EG8HxK3le\noWtq8LaVndR3jReF8fCQ7JpmBos0QnLjr5PomY53QXqYi0h/UejOB/29JikLYo9G\nUu6mf2csfToTyP6fEtVH/hDc+nba7ysJA2sh91IhAoGBAJ4pPM7LLPcZ1CchBucP\n4n1pi9WIoSJepun5BXyoJ0NAQ0crAuBQgya6de+h+AVoytbqqI4p5iGiQ/EMbHMS\ngG599w11VTAvN/R/5jzBuQUm+EPQ9J9+HlUSGmrMS3Wvx4ODLhsWF9vfps4kO1bD\nSb1o7WHMWYUg+Z5KtOuS6sbP\n-----END PRIVATE KEY-----\n",
  "client_email": "firebase-adminsdk-gcp3y@citynow-locker.iam.gserviceaccount.com",
  "client_id": "116866314028681413059",
  "auth_uri": "https://accounts.google.com/o/oauth2/auth",
  "token_uri": "https://oauth2.googleapis.com/token",
  "auth_provider_x509_cert_url": "https://www.googleapis.com/oauth2/v1/certs",
  "client_x509_cert_url": "https://www.googleapis.com/robot/v1/metadata/x509/firebase-adminsdk-gcp3y%40citynow-locker.iam.gserviceaccount.com"
}
